{
  "name": "ploperations-puppetlabs_apt",
  "version": "0.0.5",
  "author": "Puppet Labs Operations",
  "summary": "Installs the Puppet Labs community apt repository",
  "license": "Apache 2.0",
  "source": "https://github.com/puppetlabs-operations/puppet-puppetlabs_apt",
  "project_page": "https://github.com/puppetlabs-operations/puppet-puppetlabs_apt",
  "issues_url": "https://github.com/puppetlabs-operations/puppet-puppetlabs_apt/issues",
  "operatingsystem_support": [
    {
      "operatingsystem": "Debian",
      "operatingsystemrelease": [
        "6",
        "7"
      ]
    },
    {
      "operatingsystem": "Ubuntu",
      "operatingsystemrelease": [
        "12.04"
      ]
    }
  ],
  "requirements": [
    {
      "name": "pe",
      "version_requirement": "3.x"
    },
    {
      "name": "puppet",
      "version_requirement": "3.x"
    }
  ],
  "dependencies": [
    {"name":"puppetlabs-apt","version_requirement":">= 1.0.0"}
  ]
}
